725028 182187 509
664202 51593 509
817067 596436 509
976500 14647 525
781893 839306 525
445163 845649 525
78964 457534 449
329891 258670 407
528142 671819 509
128160 396622 443
780165 412435 509
39566 156795 383
920321 144120 525
222637 618843 470
503017 675572 509
16041 939669 525
684353 362390 509
936135 977502 507
919982 626138 525
951484 295135 525
695764 140387 509
871768 623749 525
243424 539223 470
208031 77540 383
775841 769815 437
999800 690121 525
736401 500698 509
362943 985371 525
519666 7077 470
999925 133484 525
905364 602473 525
574807 997282 525
979955 816440 525
682060 434364 509
479229 19173 449
875191 757827 525
1456 188792 383
903277 330192 525
374306 739851 509
43520 84148 351
161307 373893 443
645690 166215 509
254940 765424 509
978982 506000 525
796675 58872 509
560200 506702 470
641734 792194 504
188972 333025 443
354589 34982 443
33371 355544 443
347004 160843 443
716267 903384 525
751614 981854 525
437806 885733 525
213661 122799 383
776330 556624 509
27166 259944 443
967529 878269 507
189578 323562 443
467014 224080 449
489110 392197 449
829800 615412 509
591652 305876 470
876716 314695 525
694626 135219 509
752570 529893 509
83280 654943 509
265242 650064 509
869280 272040 525
445599 17977 449
637942 902357 525
526017 282285 470
889359 409876 525
451273 29023 449
220222 932892 525
246309 149710 443
917328 255905 525
423323 39443 449
670673 90547 509
349978 893769 525
738664 338740 509
181740 988761 525
848797 405812 525
462601 399456 449
73915 781291 509
417733 620800 470
195473 790034 509
377192 336960 441
920082 346718 525
97566 786529 509
469020 506650 426
156741 509630 449
905814 764319 525
906468 98590 525
279474 362995 441
15548 475866 449
319314 341180 384
270262 813669 509
81670 226463 386
569403 251773 470
70388 826 340
460323 260781 449
59217 887610 525
220997 321980 443
834827 68953 509
433133 613686 470
705609 123255 509
269291 355732 441
478858 317652 449
477192 874890 525
999530 509416 525
412500 734254 509
847299 602975 525
841819 263104 525
732144 361780 509
700278 635802 442
866669 638377 525
449021 925301 525
809626 509024 509
583706 382421 470
56158 456730 449
919801 598482 525
981416 756617 525
446171 132101 449
817489 318739 509
708874 314763 509
931294 752102 525
547303 591865 434
8609 564658 470
842527 934428 476
280958 184968 443
264380 990315 525
609227 618189 447
279959 557900 470
952913 450906 525
60395 846527 525
281584 477190 449
363243 16607 443
83299 614425 470
7811 990544 525
182641 482862 449
603797 507889 470
972160 665272 525
695407 220303 509
299592 795654 509
212206 799509 509
325421 539794 470
441892 743347 509
244793 566518 470
547877 47386 470
224635 219390 355
228142 230051 355
479931 919384 525
39987 467023 449
42968 207400 383
233668 816169 509
897281 179256 525
752219 656968 504
208076 821581 509
57988 70449 335
574902 819221 509
235305 891737 525
839032 868476 419
534201 593031 452
501314 14301 449
556213 434392 470
737046 464597 509
719511 407004 509
186308 407156 443
177631 263902 443
959358 385101 525
682939 791810 504
40471 958957 525
420306 117958 449
663132 568488 509
128429 327403 443
382543 399246 436
699458 514285 509
326268 951933 525
241119 363949 441
413435 307344 449
99503 511920 449
481729 662965 509
465324 499008 426
103074 944989 525
264354 997104 525
832743 906060 525
481436 376637 449
380679 787600 509
921773 623824 525
257862 729550 509
61788 736992 509
362215 78712 443
629549 227445 509
805263 152986 509
456456 951495 525
515192 541716 439
601033 194565 470
629902 468194 509
588771 303281 470
335530 279191 389
828977 469224 509
774696 359849 509
370651 956928 525
352423 197925 443
81569 140106 354
920284 969923 507
965639 839990 507
145363 967572 525
503709 455190 444
238340 512728 470
858730 171899 525
576654 784812 509
683509 948859 525
115538 540384 470
318959 221397 443
915951 422567 525
961280 64299 525
98005 854887 525
996716 712941 525
599048 48753 470
108130 484823 449
224947 355530 443
798497 355472 509
656422 233896 509
379847 528819 470
460718 740856 509
932408 445611 525
655440 534876 509
445287 465912 444
652770 945587 525
804932 385998 509
153157 547472 470
927682 385500 525
65218 714060 509
644996 554282 509
422848 218614 449
418147 554715 470
867871 708329 525
727646 257426 509
335157 350647 441
792223 772401 437
344419 437569 449
880550 256573 525
639059 986088 525
396500 843997 525
231184 320478 407
292694 835329 509
453953 472726 444
402092 256480 441
